[gd_resource type="Resource" load_steps=2 format=2]

[ext_resource path="res://resource/textbox_resource.gd" type="Script" id=1]

[resource]
script = ExtResource( 1 )
strings = [ "You've already interacted with this textbox!" ]
special_args = [  ]
